…
``` r
unemployment =
  read_csv('./data/fivethirtyeight_datasets/unemployment.csv') |> 
  pivot_longer(Jan:Dec,
               names_to = "month",
               values_to = "percentage") |>
  janitor::clean_names() |>
  mutate(month = month.name[match(month, month.abb)]) |> # Jan -> January 
  mutate(year = as.character(year))
unemployment
```

    ## # A tibble: 816 × 3
    ##    year  month     percentage
    ##    <chr> <chr>          <dbl>
    ##  1 1948  January          3.4
    ##  2 1948  February         3.8
    ##  3 1948  March            4  
    ##  4 1948  April            3.9
    ##  5 1948  May              3.5
    ##  6 1948  June             3.6
    ##  7 1948  July             3.6
    ##  8 1948  August           3.9
    ##  9 1948  September        3.8
    ## 10 1948  October          3.7
    ## # ℹ 806 more rows
…
**Variable type: POSIXct**

| skim_variable | n_missing | complete_rate | min        | max        | median     | n_unique |
|:--------------|----------:|--------------:|:-----------|:-----------|:-----------|---------:|
| date          |         0 |             1 | 1900-01-20 | 2023-06-29 | 2018-09-01 |      356 |

``` r
trashwheel_data
```

    ## # A tibble: 584 × 14
    ##    dumpster month year  date                weight_tons volume_cubic_yards
    ##       <dbl> <chr> <chr> <dttm>                    <dbl>              <dbl>
    ##  1        1 May   2014  2014-05-16 00:00:00        4.31                 18
    ##  2        2 May   2014  2014-05-16 00:00:00        2.74                 13
    ##  3        3 May   2014  2014-05-16 00:00:00        3.45                 15
    ##  4        4 May   2014  2014-05-17 00:00:00        3.1                  15
    ##  5        5 May   2014  2014-05-17 00:00:00        4.06                 18
    ##  6        6 May   2014  2014-05-20 00:00:00        2.71                 13
    ##  7        7 May   2014  2014-05-21 00:00:00        1.91                  8
    ##  8        8 May   2014  2014-05-28 00:00:00        3.7                  16
    ##  9        9 June  2014  2014-06-05 00:00:00        2.52                 14
    ## 10       10 June  2014  2014-06-11 00:00:00        3.76                 18
    ## # ℹ 574 more rows
    ## # ℹ 8 more variables: plastic_bottles <dbl>, polystyrene <dbl>,
    ## #   cigarette_butts <dbl>, glass_bottles <dbl>, plastic_bags <dbl>,
    ## #   wrappers <dbl>, sports_balls <dbl>, homes_powered <dbl>
…
